transcript
# vsim -c tbench_top -L /CMC/tools/mentor/questasim_2020.1_1/questasim/uvm-1.2 "+UVM_TESTNAME=A_is_greater_B_test" 
# Start time: 19:40:35 on Jan 27,2023
# Loading /tmp/nen943@engr-tau-18L_dpi_72278/linux_x86_64_gcc-7.4.0/export_tramp.so
# ** Note: (vsim-8009) Loading existing optimized design _opt1
# //  Questa Sim-64
# //  Version 2020.1_1 linux_x86_64 Mar  4 2020
# //
# //  Copyright 1991-2020 Mentor Graphics Corporation
# //  All Rights Reserved.
# //
# //  QuestaSim and its associated documentation contain trade
# //  secrets and commercial or financial information that are the property of
# //  Mentor Graphics Corporation and are privileged, confidential,
# //  and exempt from disclosure under the Freedom of Information Act,
# //  5 U.S.C. Section 552. Furthermore, this information
# //  is prohibited from disclosure under the Trade Secrets Act,
# //  18 U.S.C. Section 1905.
# //
# Loading sv_std.std
# Loading work.uvm_pkg(fast)
# Loading work.xsw_transaction(fast)
# Loading work.xsw_sequences(fast)
# Loading work.xsw_scoreboard(fast)
# Loading work.xsw_sequencer(fast)
# Loading work.alu_interface(fast)
# Loading work.xsw_monitor(fast)
# Loading work.xsw_driver(fast)
# Loading work.xsw_agent(fast)
# Loading work.xsw_environment(fast)
# Loading work.xsw_test_pkg(fast)
# Loading /CMC/tools/mentor/questasim_2020.1_1/questasim/uvm-1.2.uvm_pkg(fast)
# Loading /CMC/tools/mentor/questasim_2020.1_1/questasim/uvm-1.2.questa_uvm_pkg(fast)
# Loading work.tbench_top(fast)
# Loading work.dut_top(fast)
# Compiling /tmp/nen943@engr-tau-18L_dpi_72278/linux_x86_64_gcc-7.4.0/exportwrapper.c
# Loading /tmp/nen943@engr-tau-18L_dpi_72278/linux_x86_64_gcc-7.4.0/vsim_auto_compile.so
# Loading /CMC/tools/mentor/questasim_2020.1_1/questasim/uvm-1.2/linux_x86_64/uvm_dpi.so
	run -all
# UVM_INFO /CMC/tools/mentor/questasim_2020.1_1/questasim/verilog_src/uvm-1.2/src/base/uvm_root.svh(392) @ 0: reporter [UVM/RELNOTES] 
# ----------------------------------------------------------------
# UVM-1.2
# (C) 2007-2014 Mentor Graphics Corporation
# (C) 2007-2014 Cadence Design Systems, Inc.
# (C) 2006-2014 Synopsys, Inc.
# (C) 2011-2013 Cypress Semiconductor Corp.
# (C) 2013-2014 NVIDIA Corporation
# ----------------------------------------------------------------
# 
#   ***********       IMPORTANT RELEASE NOTES         ************
# 
#   You are using a version of the UVM library that has been compiled
#   with `UVM_NO_DEPRECATED undefined.
#   See http://www.eda.org/svdb/view.php?id=3313 for more details.
# 
#   You are using a version of the UVM library that has been compiled
#   with `UVM_OBJECT_DO_NOT_NEED_CONSTRUCTOR undefined.
#   See http://www.eda.org/svdb/view.php?id=3770 for more details.
# 
#       (Specify +UVM_NO_RELNOTES to turn off this notice)
# 
# UVM_INFO verilog_src/uvm-1.2/src/base/uvm_root.svh(392) @ 0: reporter [UVM/RELNOTES] 
# ----------------------------------------------------------------
# UVM-1.2
# (C) 2007-2014 Mentor Graphics Corporation
# (C) 2007-2014 Cadence Design Systems, Inc.
# (C) 2006-2014 Synopsys, Inc.
# (C) 2011-2013 Cypress Semiconductor Corp.
# (C) 2013-2014 NVIDIA Corporation
# ----------------------------------------------------------------
# 
#   ***********       IMPORTANT RELEASE NOTES         ************
# 
#   You are using a version of the UVM library that has been compiled
#   with `UVM_NO_DEPRECATED undefined.
#   See http://www.eda.org/svdb/view.php?id=3313 for more details.
# 
#   You are using a version of the UVM library that has been compiled
#   with `UVM_OBJECT_DO_NOT_NEED_CONSTRUCTOR undefined.
#   See http://www.eda.org/svdb/view.php?id=3770 for more details.
# 
#       (Specify +UVM_NO_RELNOTES to turn off this notice)
# 
# UVM_INFO verilog_src/questa_uvm_pkg-1.2/src/questa_uvm_pkg.sv(277) @ 0: reporter [Questa UVM] QUESTA_UVM-1.2.3
# UVM_INFO verilog_src/questa_uvm_pkg-1.2/src/questa_uvm_pkg.sv(278) @ 0: reporter [Questa UVM]  questa_uvm::init(+struct)
# UVM_INFO @ 0: reporter [RNTST] Running test A_is_greater_B_test...
# UVM_INFO ./verification/regression_test/xsw_scoreboard.sv(201) @ 45: uvm_test_top.env.scb [A>B] PASSED! ACT=  1, EXP=  1, A= 60, B= 34
# UVM_INFO ./verification/regression_test/xsw_scoreboard.sv(201) @ 65: uvm_test_top.env.scb [A>B] PASSED! ACT=  0, EXP=  0, A= 93, B=252
# UVM_INFO ./verification/regression_test/xsw_scoreboard.sv(201) @ 85: uvm_test_top.env.scb [A>B] PASSED! ACT=  1, EXP=  1, A=130, B=  9
# UVM_INFO ./verification/regression_test/xsw_scoreboard.sv(201) @ 105: uvm_test_top.env.scb [A>B] PASSED! ACT=  0, EXP=  0, A= 28, B= 82
# UVM_INFO ./verification/regression_test/xsw_scoreboard.sv(201) @ 125: uvm_test_top.env.scb [A>B] PASSED! ACT=  1, EXP=  1, A= 54, B= 50
# UVM_INFO ./verification/regression_test/xsw_scoreboard.sv(201) @ 145: uvm_test_top.env.scb [A>B] PASSED! ACT=  1, EXP=  1, A= 44, B= 22
# UVM_INFO ./verification/regression_test/xsw_scoreboard.sv(201) @ 165: uvm_test_top.env.scb [A>B] PASSED! ACT=  1, EXP=  1, A=151, B= 45
# UVM_INFO ./verification/regression_test/xsw_scoreboard.sv(201) @ 185: uvm_test_top.env.scb [A>B] PASSED! ACT=  1, EXP=  1, A=238, B= 27
# UVM_INFO ./verification/regression_test/xsw_scoreboard.sv(201) @ 205: uvm_test_top.env.scb [A>B] PASSED! ACT=  1, EXP=  1, A=252, B=240
# UVM_INFO ./verification/regression_test/xsw_scoreboard.sv(201) @ 225: uvm_test_top.env.scb [A>B] PASSED! ACT=  0, EXP=  0, A=227, B=244
# UVM_INFO ./verification/regression_test/xsw_scoreboard.sv(201) @ 245: uvm_test_top.env.scb [A>B] PASSED! ACT=  1, EXP=  1, A=229, B=203
# UVM_INFO ./verification/regression_test/xsw_scoreboard.sv(201) @ 265: uvm_test_top.env.scb [A>B] PASSED! ACT=  1, EXP=  1, A=245, B= 98
# UVM_INFO ./verification/regression_test/xsw_scoreboard.sv(201) @ 285: uvm_test_top.env.scb [A>B] PASSED! ACT=  1, EXP=  1, A=198, B= 19
# UVM_INFO ./verification/regression_test/xsw_scoreboard.sv(201) @ 305: uvm_test_top.env.scb [A>B] PASSED! ACT=  1, EXP=  1, A=178, B= 92
# UVM_INFO ./verification/regression_test/xsw_scoreboard.sv(201) @ 325: uvm_test_top.env.scb [A>B] PASSED! ACT=  0, EXP=  0, A= 29, B= 95
# UVM_INFO ./verification/regression_test/xsw_scoreboard.sv(201) @ 345: uvm_test_top.env.scb [A>B] PASSED! ACT=  0, EXP=  0, A=105, B=141
# UVM_INFO ./verification/regression_test/xsw_scoreboard.sv(201) @ 365: uvm_test_top.env.scb [A>B] PASSED! ACT=  1, EXP=  1, A=218, B=216
# UVM_INFO ./verification/regression_test/xsw_scoreboard.sv(201) @ 385: uvm_test_top.env.scb [A>B] PASSED! ACT=  0, EXP=  0, A= 70, B=109
# UVM_INFO ./verification/regression_test/xsw_scoreboard.sv(201) @ 405: uvm_test_top.env.scb [A>B] PASSED! ACT=  0, EXP=  0, A=125, B=134
# UVM_INFO ./verification/regression_test/xsw_scoreboard.sv(201) @ 425: uvm_test_top.env.scb [A>B] PASSED! ACT=  0, EXP=  0, A= 15, B= 60
# UVM_INFO ./verification/regression_test/xsw_scoreboard.sv(201) @ 445: uvm_test_top.env.scb [A>B] PASSED! ACT=  1, EXP=  1, A=140, B= 56
# UVM_INFO ./verification/regression_test/xsw_scoreboard.sv(201) @ 465: uvm_test_top.env.scb [A>B] PASSED! ACT=  0, EXP=  0, A=104, B=149
# UVM_INFO ./verification/regression_test/xsw_scoreboard.sv(201) @ 485: uvm_test_top.env.scb [A>B] PASSED! ACT=  0, EXP=  0, A= 28, B=251
# UVM_INFO ./verification/regression_test/xsw_scoreboard.sv(201) @ 505: uvm_test_top.env.scb [A>B] PASSED! ACT=  0, EXP=  0, A= 19, B= 91
# UVM_INFO ./verification/regression_test/xsw_scoreboard.sv(201) @ 525: uvm_test_top.env.scb [A>B] PASSED! ACT=  0, EXP=  0, A= 38, B=132
# UVM_INFO ./verification/regression_test/xsw_scoreboard.sv(201) @ 545: uvm_test_top.env.scb [A>B] PASSED! ACT=  0, EXP=  0, A=143, B=211
# UVM_INFO ./verification/regression_test/xsw_scoreboard.sv(201) @ 565: uvm_test_top.env.scb [A>B] PASSED! ACT=  1, EXP=  1, A=252, B= 21
# UVM_INFO ./verification/regression_test/xsw_scoreboard.sv(201) @ 585: uvm_test_top.env.scb [A>B] PASSED! ACT=  0, EXP=  0, A= 92, B=187
# UVM_INFO ./verification/regression_test/xsw_scoreboard.sv(201) @ 605: uvm_test_top.env.scb [A>B] PASSED! ACT=  0, EXP=  0, A=128, B=139
# UVM_INFO ./verification/regression_test/xsw_scoreboard.sv(201) @ 625: uvm_test_top.env.scb [A>B] PASSED! ACT=  1, EXP=  1, A=112, B= 65
# UVM_INFO ./verification/regression_test/xsw_scoreboard.sv(201) @ 645: uvm_test_top.env.scb [A>B] PASSED! ACT=  0, EXP=  0, A=156, B=240
# UVM_INFO ./verification/regression_test/xsw_scoreboard.sv(201) @ 665: uvm_test_top.env.scb [A>B] PASSED! ACT=  1, EXP=  1, A=195, B= 77
# UVM_INFO ./verification/regression_test/xsw_scoreboard.sv(201) @ 685: uvm_test_top.env.scb [A>B] PASSED! ACT=  1, EXP=  1, A= 49, B= 15
# UVM_INFO ./verification/regression_test/xsw_scoreboard.sv(201) @ 705: uvm_test_top.env.scb [A>B] PASSED! ACT=  1, EXP=  1, A=251, B=111
# UVM_INFO ./verification/regression_test/xsw_scoreboard.sv(201) @ 725: uvm_test_top.env.scb [A>B] PASSED! ACT=  0, EXP=  0, A=141, B=161
# UVM_INFO ./verification/regression_test/xsw_scoreboard.sv(201) @ 745: uvm_test_top.env.scb [A>B] PASSED! ACT=  0, EXP=  0, A=  2, B=245
# UVM_INFO ./verification/regression_test/xsw_scoreboard.sv(201) @ 765: uvm_test_top.env.scb [A>B] PASSED! ACT=  1, EXP=  1, A=188, B=165
# UVM_INFO ./verification/regression_test/xsw_scoreboard.sv(201) @ 785: uvm_test_top.env.scb [A>B] PASSED! ACT=  1, EXP=  1, A=146, B=143
# UVM_INFO ./verification/regression_test/xsw_scoreboard.sv(201) @ 805: uvm_test_top.env.scb [A>B] PASSED! ACT=  1, EXP=  1, A= 42, B= 13
# UVM_INFO ./verification/regression_test/xsw_scoreboard.sv(201) @ 825: uvm_test_top.env.scb [A>B] PASSED! ACT=  0, EXP=  0, A=118, B=220
# UVM_INFO ./verification/regression_test/xsw_scoreboard.sv(201) @ 845: uvm_test_top.env.scb [A>B] PASSED! ACT=  0, EXP=  0, A=131, B=185
# UVM_INFO ./verification/regression_test/xsw_scoreboard.sv(201) @ 865: uvm_test_top.env.scb [A>B] PASSED! ACT=  1, EXP=  1, A=238, B= 46
# UVM_INFO ./verification/regression_test/xsw_scoreboard.sv(201) @ 885: uvm_test_top.env.scb [A>B] PASSED! ACT=  0, EXP=  0, A=  4, B=204
# UVM_INFO ./verification/regression_test/xsw_scoreboard.sv(201) @ 905: uvm_test_top.env.scb [A>B] PASSED! ACT=  0, EXP=  0, A=175, B=199
# UVM_INFO ./verification/regression_test/xsw_scoreboard.sv(201) @ 925: uvm_test_top.env.scb [A>B] PASSED! ACT=  0, EXP=  0, A=172, B=229
# UVM_INFO ./verification/regression_test/xsw_scoreboard.sv(201) @ 945: uvm_test_top.env.scb [A>B] PASSED! ACT=  1, EXP=  1, A=237, B=133
# UVM_INFO ./verification/regression_test/xsw_scoreboard.sv(201) @ 965: uvm_test_top.env.scb [A>B] PASSED! ACT=  1, EXP=  1, A=149, B= 32
# UVM_INFO ./verification/regression_test/xsw_scoreboard.sv(201) @ 985: uvm_test_top.env.scb [A>B] PASSED! ACT=  1, EXP=  1, A=200, B= 15
# UVM_INFO ./verification/regression_test/xsw_scoreboard.sv(201) @ 1005: uvm_test_top.env.scb [A>B] PASSED! ACT=  1, EXP=  1, A=189, B=163
# UVM_INFO ./verification/regression_test/xsw_scoreboard.sv(201) @ 1025: uvm_test_top.env.scb [A>B] PASSED! ACT=  0, EXP=  0, A= 24, B=125
# UVM_INFO ./verification/regression_test/xsw_scoreboard.sv(201) @ 1045: uvm_test_top.env.scb [A>B] PASSED! ACT=  1, EXP=  1, A=190, B= 54
# UVM_INFO ./verification/regression_test/xsw_scoreboard.sv(201) @ 1065: uvm_test_top.env.scb [A>B] PASSED! ACT=  1, EXP=  1, A=247, B= 78
# UVM_INFO ./verification/regression_test/xsw_scoreboard.sv(201) @ 1085: uvm_test_top.env.scb [A>B] PASSED! ACT=  1, EXP=  1, A= 77, B= 11
# UVM_INFO ./verification/regression_test/xsw_scoreboard.sv(201) @ 1105: uvm_test_top.env.scb [A>B] PASSED! ACT=  1, EXP=  1, A=251, B= 19
# UVM_INFO ./verification/regression_test/xsw_scoreboard.sv(201) @ 1125: uvm_test_top.env.scb [A>B] PASSED! ACT=  0, EXP=  0, A= 37, B=198
# UVM_INFO ./verification/regression_test/xsw_scoreboard.sv(201) @ 1145: uvm_test_top.env.scb [A>B] PASSED! ACT=  0, EXP=  0, A= 76, B=146
# UVM_INFO ./verification/regression_test/xsw_scoreboard.sv(201) @ 1165: uvm_test_top.env.scb [A>B] PASSED! ACT=  0, EXP=  0, A=  3, B= 82
# UVM_INFO ./verification/regression_test/xsw_scoreboard.sv(201) @ 1185: uvm_test_top.env.scb [A>B] PASSED! ACT=  0, EXP=  0, A= 84, B=245
# UVM_INFO ./verification/regression_test/xsw_scoreboard.sv(201) @ 1205: uvm_test_top.env.scb [A>B] PASSED! ACT=  1, EXP=  1, A=200, B=  9
# UVM_INFO ./verification/regression_test/xsw_scoreboard.sv(201) @ 1225: uvm_test_top.env.scb [A>B] PASSED! ACT=  0, EXP=  0, A= 31, B= 48
# UVM_INFO ./verification/regression_test/xsw_scoreboard.sv(201) @ 1245: uvm_test_top.env.scb [A>B] PASSED! ACT=  1, EXP=  1, A= 46, B= 28
# UVM_INFO ./verification/regression_test/xsw_scoreboard.sv(201) @ 1265: uvm_test_top.env.scb [A>B] PASSED! ACT=  1, EXP=  1, A=199, B=193
# UVM_INFO ./verification/regression_test/xsw_scoreboard.sv(201) @ 1285: uvm_test_top.env.scb [A>B] PASSED! ACT=  1, EXP=  1, A=137, B= 74
# UVM_INFO ./verification/regression_test/xsw_scoreboard.sv(201) @ 1305: uvm_test_top.env.scb [A>B] PASSED! ACT=  0, EXP=  0, A= 68, B=225
# UVM_INFO ./verification/regression_test/xsw_scoreboard.sv(201) @ 1325: uvm_test_top.env.scb [A>B] PASSED! ACT=  0, EXP=  0, A=105, B=224
# UVM_INFO ./verification/regression_test/xsw_scoreboard.sv(201) @ 1345: uvm_test_top.env.scb [A>B] PASSED! ACT=  1, EXP=  1, A= 81, B= 11
# UVM_INFO ./verification/regression_test/xsw_scoreboard.sv(201) @ 1365: uvm_test_top.env.scb [A>B] PASSED! ACT=  1, EXP=  1, A= 57, B=  3
# UVM_INFO ./verification/regression_test/xsw_scoreboard.sv(201) @ 1385: uvm_test_top.env.scb [A>B] PASSED! ACT=  0, EXP=  0, A=138, B=159
# UVM_INFO ./verification/regression_test/xsw_scoreboard.sv(201) @ 1405: uvm_test_top.env.scb [A>B] PASSED! ACT=  0, EXP=  0, A= 27, B= 27
# UVM_INFO ./verification/regression_test/xsw_scoreboard.sv(201) @ 1425: uvm_test_top.env.scb [A>B] PASSED! ACT=  0, EXP=  0, A= 20, B= 20
# UVM_INFO ./verification/regression_test/xsw_scoreboard.sv(201) @ 1445: uvm_test_top.env.scb [A>B] PASSED! ACT=  0, EXP=  0, A= 21, B=222
# UVM_INFO ./verification/regression_test/xsw_scoreboard.sv(201) @ 1465: uvm_test_top.env.scb [A>B] PASSED! ACT=  0, EXP=  0, A=  1, B= 79
# UVM_INFO ./verification/regression_test/xsw_scoreboard.sv(201) @ 1485: uvm_test_top.env.scb [A>B] PASSED! ACT=  0, EXP=  0, A=131, B=146
# UVM_INFO ./verification/regression_test/xsw_scoreboard.sv(201) @ 1505: uvm_test_top.env.scb [A>B] PASSED! ACT=  0, EXP=  0, A= 79, B=139
# UVM_INFO ./verification/regression_test/xsw_scoreboard.sv(201) @ 1525: uvm_test_top.env.scb [A>B] PASSED! ACT=  1, EXP=  1, A=253, B=196
# UVM_INFO ./verification/regression_test/xsw_scoreboard.sv(201) @ 1545: uvm_test_top.env.scb [A>B] PASSED! ACT=  1, EXP=  1, A=219, B= 50
# UVM_INFO ./verification/regression_test/xsw_scoreboard.sv(201) @ 1565: uvm_test_top.env.scb [A>B] PASSED! ACT=  1, EXP=  1, A=201, B= 73
# UVM_INFO ./verification/regression_test/xsw_scoreboard.sv(201) @ 1585: uvm_test_top.env.scb [A>B] PASSED! ACT=  0, EXP=  0, A=  6, B= 95
# UVM_INFO ./verification/regression_test/xsw_scoreboard.sv(201) @ 1605: uvm_test_top.env.scb [A>B] PASSED! ACT=  0, EXP=  0, A=159, B=170
# UVM_INFO ./verification/regression_test/xsw_scoreboard.sv(201) @ 1625: uvm_test_top.env.scb [A>B] PASSED! ACT=  0, EXP=  0, A= 94, B=162
# UVM_INFO ./verification/regression_test/xsw_scoreboard.sv(201) @ 1645: uvm_test_top.env.scb [A>B] PASSED! ACT=  1, EXP=  1, A= 89, B= 72
# UVM_INFO ./verification/regression_test/xsw_scoreboard.sv(201) @ 1665: uvm_test_top.env.scb [A>B] PASSED! ACT=  0, EXP=  0, A=192, B=210
# UVM_INFO ./verification/regression_test/xsw_scoreboard.sv(201) @ 1685: uvm_test_top.env.scb [A>B] PASSED! ACT=  1, EXP=  1, A=112, B=  5
# UVM_INFO ./verification/regression_test/xsw_scoreboard.sv(201) @ 1705: uvm_test_top.env.scb [A>B] PASSED! ACT=  0, EXP=  0, A=  7, B= 29
# UVM_INFO ./verification/regression_test/xsw_scoreboard.sv(201) @ 1725: uvm_test_top.env.scb [A>B] PASSED! ACT=  0, EXP=  0, A= 28, B= 56
# UVM_INFO ./verification/regression_test/xsw_scoreboard.sv(201) @ 1745: uvm_test_top.env.scb [A>B] PASSED! ACT=  1, EXP=  1, A=230, B= 15
# UVM_INFO ./verification/regression_test/xsw_scoreboard.sv(201) @ 1765: uvm_test_top.env.scb [A>B] PASSED! ACT=  1, EXP=  1, A=210, B= 47
# UVM_INFO ./verification/regression_test/xsw_scoreboard.sv(201) @ 1785: uvm_test_top.env.scb [A>B] PASSED! ACT=  1, EXP=  1, A=132, B= 47
# UVM_INFO ./verification/regression_test/xsw_scoreboard.sv(201) @ 1805: uvm_test_top.env.scb [A>B] PASSED! ACT=  0, EXP=  0, A= 66, B=134
# UVM_INFO ./verification/regression_test/xsw_scoreboard.sv(201) @ 1825: uvm_test_top.env.scb [A>B] PASSED! ACT=  1, EXP=  1, A=230, B=125
# UVM_INFO ./verification/regression_test/xsw_scoreboard.sv(201) @ 1845: uvm_test_top.env.scb [A>B] PASSED! ACT=  1, EXP=  1, A=221, B= 90
# UVM_INFO ./verification/regression_test/xsw_scoreboard.sv(201) @ 1865: uvm_test_top.env.scb [A>B] PASSED! ACT=  1, EXP=  1, A= 74, B= 34
# UVM_INFO ./verification/regression_test/xsw_scoreboard.sv(201) @ 1885: uvm_test_top.env.scb [A>B] PASSED! ACT=  1, EXP=  1, A=239, B=128
# UVM_INFO ./verification/regression_test/xsw_scoreboard.sv(201) @ 1905: uvm_test_top.env.scb [A>B] PASSED! ACT=  1, EXP=  1, A=181, B=126
# UVM_INFO ./verification/regression_test/xsw_scoreboard.sv(201) @ 1925: uvm_test_top.env.scb [A>B] PASSED! ACT=  1, EXP=  1, A=233, B= 73
# UVM_INFO ./verification/regression_test/xsw_scoreboard.sv(201) @ 1945: uvm_test_top.env.scb [A>B] PASSED! ACT=  0, EXP=  0, A= 17, B= 38
# UVM_INFO ./verification/regression_test/xsw_scoreboard.sv(201) @ 1965: uvm_test_top.env.scb [A>B] PASSED! ACT=  1, EXP=  1, A=166, B= 43
# UVM_INFO ./verification/regression_test/xsw_scoreboard.sv(201) @ 1985: uvm_test_top.env.scb [A>B] PASSED! ACT=  1, EXP=  1, A= 49, B= 11
# UVM_INFO ./verification/regression_test/xsw_scoreboard.sv(201) @ 2005: uvm_test_top.env.scb [A>B] PASSED! ACT=  1, EXP=  1, A= 93, B= 39
# UVM_INFO /CMC/tools/mentor/questasim_2020.1_1/questasim/verilog_src/uvm-1.2/src/base/uvm_objection.svh(1270) @ 2015: reporter [TEST_DONE] 'run' phase is ready to proceed to the 'extract' phase
# UVM_INFO /CMC/tools/mentor/questasim_2020.1_1/questasim/verilog_src/uvm-1.2/src/base/uvm_report_server.svh(847) @ 2015: reporter [UVM/REPORT/SERVER] 
# --- UVM Report Summary ---
# 
# ** Report counts by severity
# UVM_INFO :  102
# UVM_WARNING :    0
# UVM_ERROR :    0
# UVM_FATAL :    0
# ** Report counts by id
# [A>B]    99
# [RNTST]     1
# [TEST_DONE]     1
# [UVM/RELNOTES]     1
# 
# ** Note: $finish    : /CMC/tools/mentor/questasim_2020.1_1/questasim/verilog_src/uvm-1.2/src/base/uvm_root.svh(517)
#    Time: 2015 ns  Iteration: 68  Instance: /tbench_top
# End time: 19:40:37 on Jan 27,2023, Elapsed time: 0:00:02
# Errors: 0, Warnings: 0
